%YAML 1.1
%TAG !u! tag:unity3d.com,2011:
--- !u!74 &7400000
AnimationClip:
  m_ObjectHideFlags: 0
  m_CorrespondingSourceObject: {fileID: 0}
  m_PrefabInstance: {fileID: 0}
  m_PrefabAsset: {fileID: 0}
  m_Name: TitleClick
  serializedVersion: 6
  m_Legacy: 0
  m_Compressed: 0
  m_UseHighQualityCurve: 1
  m_RotationCurves: []
  m_CompressedRotationCurves: []
  m_EulerCurves: []
  m_PositionCurves: []
  m_ScaleCurves: []
  m_FloatCurves: []
  m_PPtrCurves:
  - curve:
    - time: 0
      value: {fileID: 21300000, guid: 33b039337c668df4aaaf1aace8c31e1c, type: 3}
    - time: 0.016666668
      value: {fileID: 21300000, guid: 84d0c412d21acdd4797ed8c91bbacfef, type: 3}
    - time: 0.033333335
      value: {fileID: 21300000, guid: 7b09b5547e954ba4fa3ee94311648660, type: 3}
    - time: 0.05
      value: {fileID: 21300000, guid: 12fee1af673746b4e950f3a8ded8c68a, type: 3}
    - time: 0.06666667
      value: {fileID: 21300000, guid: 7e6d03d04c356a74b8eecd8e5e7304e0, type: 3}
    - time: 0.083333336
      value: {fileID: 21300000, guid: 30f3cd6c4d0734e449b71c77cd5daeb2, type: 3}
    - time: 0.1
      value: {fileID: 21300000, guid: f6cab27f25cbfbc4cafe440d8cbd583f, type: 3}
    - time: 0.11666667
      value: {fileID: 21300000, guid: 0a4380830b2aa2740946b01b14b0ec28, type: 3}
    - time: 0.13333334
      value: {fileID: 21300000, guid: 74198d4dffe5fa04197db90f8602d554, type: 3}
    - time: 0.15
      value: {fileID: 21300000, guid: ce1171314c172c14189675a1a6882e2b, type: 3}
    - time: 0.16666667
      value: {fileID: 21300000, guid: 6e9e063962860f3489be74bab89bb739, type: 3}
    - time: 0.18333334
      value: {fileID: 21300000, guid: dc3be63bf8e750f439c648c8254a6737, type: 3}
    - time: 0.2
      value: {fileID: 21300000, guid: 8ac036ef1abb7354497859b15e9c3fd3, type: 3}
    - time: 0.21666667
      value: {fileID: 21300000, guid: 5d4d316fc13d55c409f41af00b3dacad, type: 3}
    - time: 0.23333333
      value: {fileID: 21300000, guid: 2c77712c7db4f9645bb012ee4075ef86, type: 3}
    - time: 0.25
      value: {fileID: 21300000, guid: 582b4f0706b73ed4c93111b40297657e, type: 3}
    - time: 0.26666668
      value: {fileID: 21300000, guid: 56c2b1f342d70834b8eb3ff0642c1c69, type: 3}
    - time: 0.28333333
      value: {fileID: 21300000, guid: 41c152fee27753d4b8e7e60b8ed2fc5a, type: 3}
    - time: 0.3
      value: {fileID: 21300000, guid: 159e986c3158c9e48a6e97e338e320ab, type: 3}
    - time: 0.31666666
      value: {fileID: 21300000, guid: 6fc95cba039c6104390fce06965b6692, type: 3}
    - time: 0.33333334
      value: {fileID: 21300000, guid: 4ed4d1d711c55204a964173c6ca8d697, type: 3}
    - time: 0.35
      value: {fileID: 21300000, guid: 7b1c01273f17d9f4a8bdcffe01eff6b0, type: 3}
    - time: 0.36666667
      value: {fileID: 21300000, guid: c69f8e30dd3a41b43aa2f9547c3e13a4, type: 3}
    - time: 0.38333333
      value: {fileID: 21300000, guid: f4d986916692c8e4da24e0c315b9415d, type: 3}
    - time: 0.4
      value: {fileID: 21300000, guid: bc797b0a71d36c34da993a2c4e7f3688, type: 3}
    - time: 0.41666666
      value: {fileID: 21300000, guid: d0349896a7025a7489685e0ce06a3ccf, type: 3}
    - time: 0.43333334
      value: {fileID: 21300000, guid: 119aa76161a22dc438b43a8521b91748, type: 3}
    - time: 0.45
      value: {fileID: 21300000, guid: c63dbd280fd6e324b92e569acc3f5c70, type: 3}
    - time: 0.46666667
      value: {fileID: 21300000, guid: e7e875a197f87ed4f84958c0ef415715, type: 3}
    - time: 0.48333332
      value: {fileID: 21300000, guid: e533d2e0001fa8d4ba23b8f4d9216615, type: 3}
    - time: 0.5
      value: {fileID: 21300000, guid: 427f324b5b0f21d4cb07d8c828d3d165, type: 3}
    - time: 0.51666665
      value: {fileID: 21300000, guid: 1dcea56740d75d547935ffc4abab4162, type: 3}
    - time: 0.53333336
      value: {fileID: 21300000, guid: 5b84edcb23940234fb0afb77c29a248a, type: 3}
    - time: 0.55
      value: {fileID: 21300000, guid: fa9d7e774abf7a34f9139fa0e26a561f, type: 3}
    - time: 0.56666666
      value: {fileID: 21300000, guid: fedad617f47e68443b15e30481c9ecaf, type: 3}
    - time: 0.5833333
      value: {fileID: 21300000, guid: 6dc9377c83aa6ed4bbb1240248d24ff0, type: 3}
    - time: 0.6
      value: {fileID: 21300000, guid: 408accdc867238348bac1580f1b0412c, type: 3}
    - time: 0.6166667
      value: {fileID: 21300000, guid: 0c5dc08a7e69257419f6aae35439323f, type: 3}
    - time: 0.6333333
      value: {fileID: 21300000, guid: 8d45f80edd622e84aa84cf63632e662a, type: 3}
    - time: 0.65
      value: {fileID: 21300000, guid: 096d2c11d537b804689b09b409de94b6, type: 3}
    - time: 0.6666667
      value: {fileID: 21300000, guid: 99b3f6ea4c9300a478eb7e71e17ae419, type: 3}
    - time: 0.68333334
      value: {fileID: 21300000, guid: 610576dbea3888c46b4496e82ef7ceaf, type: 3}
    - time: 0.7
      value: {fileID: 21300000, guid: a5d910a8217a5b747835b733815a1739, type: 3}
    - time: 0.71666664
      value: {fileID: 21300000, guid: 9710f9ef52653af41815262dda1d2e0f, type: 3}
    - time: 0.73333335
      value: {fileID: 21300000, guid: 6182e7b79c355994a9c600f2442caff2, type: 3}
    - time: 0.75
      value: {fileID: 21300000, guid: b8752d83147d7d9439d5147c7afeffee, type: 3}
    - time: 0.76666665
      value: {fileID: 21300000, guid: 7a4082a3f5b626a4589c39b9b8a8f84c, type: 3}
    - time: 0.78333336
      value: {fileID: 21300000, guid: 2bcd3d13c5798c841ad8b3d4266cbee0, type: 3}
    - time: 0.8
      value: {fileID: 21300000, guid: dd04038098cf32e439150b0298c7386c, type: 3}
    - time: 0.81666666
      value: {fileID: 21300000, guid: e51b8fc845633004aa47726925409226, type: 3}
    - time: 0.8333333
      value: {fileID: 21300000, guid: d307141ec6d94fc47aa49ff89a0c1b96, type: 3}
    - time: 0.85
      value: {fileID: 21300000, guid: 26799e599f5763244b2b4961ae656b53, type: 3}
    - time: 0.8666667
      value: {fileID: 21300000, guid: 627fa75d650f79a468a932f31a0aa515, type: 3}
    - time: 0.8833333
      value: {fileID: 21300000, guid: b7e7e081cd8797c48ae6a10ea384f7af, type: 3}
    - time: 0.9
      value: {fileID: 21300000, guid: f13ae5713115ce841933a987de44f795, type: 3}
    - time: 0.9166667
      value: {fileID: 21300000, guid: 95a0f75f4ef128944a60dffea02fde0a, type: 3}
    - time: 0.93333334
      value: {fileID: 21300000, guid: d368efaf800856e4cb055c631ce0b244, type: 3}
    - time: 0.95
      value: {fileID: 21300000, guid: 7df2b4308947c52419d7f025794c280f, type: 3}
    - time: 0.96666664
      value: {fileID: 21300000, guid: e5f388c1aba758b4f8661693d9d2a5a0, type: 3}
    attribute: m_Sprite
    path: 
    classID: 114
    script: {fileID: 11500000, guid: fe87c0e1cc204ed48ad3b37840f39efc, type: 3}
  m_SampleRate: 60
  m_WrapMode: 0
  m_Bounds:
    m_Center: {x: 0, y: 0, z: 0}
    m_Extent: {x: 0, y: 0, z: 0}
  m_ClipBindingConstant:
    genericBindings:
    - serializedVersion: 2
      path: 0
      attribute: 2015549526
      script: {fileID: 11500000, guid: fe87c0e1cc204ed48ad3b37840f39efc, type: 3}
      typeID: 114
      customType: 0
      isPPtrCurve: 1
    pptrCurveMapping:
    - {fileID: 21300000, guid: 33b039337c668df4aaaf1aace8c31e1c, type: 3}
    - {fileID: 21300000, guid: 84d0c412d21acdd4797ed8c91bbacfef, type: 3}
    - {fileID: 21300000, guid: 7b09b5547e954ba4fa3ee94311648660, type: 3}
    - {fileID: 21300000, guid: 12fee1af673746b4e950f3a8ded8c68a, type: 3}
    - {fileID: 21300000, guid: 7e6d03d04c356a74b8eecd8e5e7304e0, type: 3}
    - {fileID: 21300000, guid: 30f3cd6c4d0734e449b71c77cd5daeb2, type: 3}
    - {fileID: 21300000, guid: f6cab27f25cbfbc4cafe440d8cbd583f, type: 3}
    - {fileID: 21300000, guid: 0a4380830b2aa2740946b01b14b0ec28, type: 3}
    - {fileID: 21300000, guid: 74198d4dffe5fa04197db90f8602d554, type: 3}
    - {fileID: 21300000, guid: ce1171314c172c14189675a1a6882e2b, type: 3}
    - {fileID: 21300000, guid: 6e9e063962860f3489be74bab89bb739, type: 3}
    - {fileID: 21300000, guid: dc3be63bf8e750f439c648c8254a6737, type: 3}
    - {fileID: 21300000, guid: 8ac036ef1abb7354497859b15e9c3fd3, type: 3}
    - {fileID: 21300000, guid: 5d4d316fc13d55c409f41af00b3dacad, type: 3}
    - {fileID: 21300000, guid: 2c77712c7db4f9645bb012ee4075ef86, type: 3}
    - {fileID: 21300000, guid: 582b4f0706b73ed4c93111b40297657e, type: 3}
    - {fileID: 21300000, guid: 56c2b1f342d70834b8eb3ff0642c1c69, type: 3}
    - {fileID: 21300000, guid: 41c152fee27753d4b8e7e60b8ed2fc5a, type: 3}
    - {fileID: 21300000, guid: 159e986c3158c9e48a6e97e338e320ab, type: 3}
    - {fileID: 21300000, guid: 6fc95cba039c6104390fce06965b6692, type: 3}
    - {fileID: 21300000, guid: 4ed4d1d711c55204a964173c6ca8d697, type: 3}
    - {fileID: 21300000, guid: 7b1c01273f17d9f4a8bdcffe01eff6b0, type: 3}
    - {fileID: 21300000, guid: c69f8e30dd3a41b43aa2f9547c3e13a4, type: 3}
    - {fileID: 21300000, guid: f4d986916692c8e4da24e0c315b9415d, type: 3}
    - {fileID: 21300000, guid: bc797b0a71d36c34da993a2c4e7f3688, type: 3}
    - {fileID: 21300000, guid: d0349896a7025a7489685e0ce06a3ccf, type: 3}
    - {fileID: 21300000, guid: 119aa76161a22dc438b43a8521b91748, type: 3}
    - {fileID: 21300000, guid: c63dbd280fd6e324b92e569acc3f5c70, type: 3}
    - {fileID: 21300000, guid: e7e875a197f87ed4f84958c0ef415715, type: 3}
    - {fileID: 21300000, guid: e533d2e0001fa8d4ba23b8f4d9216615, type: 3}
    - {fileID: 21300000, guid: 427f324b5b0f21d4cb07d8c828d3d165, type: 3}
    - {fileID: 21300000, guid: 1dcea56740d75d547935ffc4abab4162, type: 3}
    - {fileID: 21300000, guid: 5b84edcb23940234fb0afb77c29a248a, type: 3}
    - {fileID: 21300000, guid: fa9d7e774abf7a34f9139fa0e26a561f, type: 3}
    - {fileID: 21300000, guid: fedad617f47e68443b15e30481c9ecaf, type: 3}
    - {fileID: 21300000, guid: 6dc9377c83aa6ed4bbb1240248d24ff0, type: 3}
    - {fileID: 21300000, guid: 408accdc867238348bac1580f1b0412c, type: 3}
    - {fileID: 21300000, guid: 0c5dc08a7e69257419f6aae35439323f, type: 3}
    - {fileID: 21300000, guid: 8d45f80edd622e84aa84cf63632e662a, type: 3}
    - {fileID: 21300000, guid: 096d2c11d537b804689b09b409de94b6, type: 3}
    - {fileID: 21300000, guid: 99b3f6ea4c9300a478eb7e71e17ae419, type: 3}
    - {fileID: 21300000, guid: 610576dbea3888c46b4496e82ef7ceaf, type: 3}
    - {fileID: 21300000, guid: a5d910a8217a5b747835b733815a1739, type: 3}
    - {fileID: 21300000, guid: 9710f9ef52653af41815262dda1d2e0f, type: 3}
    - {fileID: 21300000, guid: 6182e7b79c355994a9c600f2442caff2, type: 3}
    - {fileID: 21300000, guid: b8752d83147d7d9439d5147c7afeffee, type: 3}
    - {fileID: 21300000, guid: 7a4082a3f5b626a4589c39b9b8a8f84c, type: 3}
    - {fileID: 21300000, guid: 2bcd3d13c5798c841ad8b3d4266cbee0, type: 3}
    - {fileID: 21300000, guid: dd04038098cf32e439150b0298c7386c, type: 3}
    - {fileID: 21300000, guid: e51b8fc845633004aa47726925409226, type: 3}
    - {fileID: 21300000, guid: d307141ec6d94fc47aa49ff89a0c1b96, type: 3}
    - {fileID: 21300000, guid: 26799e599f5763244b2b4961ae656b53, type: 3}
    - {fileID: 21300000, guid: 627fa75d650f79a468a932f31a0aa515, type: 3}
    - {fileID: 21300000, guid: b7e7e081cd8797c48ae6a10ea384f7af, type: 3}
    - {fileID: 21300000, guid: f13ae5713115ce841933a987de44f795, type: 3}
    - {fileID: 21300000, guid: 95a0f75f4ef128944a60dffea02fde0a, type: 3}
    - {fileID: 21300000, guid: d368efaf800856e4cb055c631ce0b244, type: 3}
    - {fileID: 21300000, guid: 7df2b4308947c52419d7f025794c280f, type: 3}
    - {fileID: 21300000, guid: e5f388c1aba758b4f8661693d9d2a5a0, type: 3}
  m_AnimationClipSettings:
    serializedVersion: 2
    m_AdditiveReferencePoseClip: {fileID: 0}
    m_AdditiveReferencePoseTime: 0
    m_StartTime: 0
    m_StopTime: 0.9833333
    m_OrientationOffsetY: 0
    m_Level: 0
    m_CycleOffset: 0
    m_HasAdditiveReferencePose: 0
    m_LoopTime: 0
    m_LoopBlend: 0
    m_LoopBlendOrientation: 0
    m_LoopBlendPositionY: 0
    m_LoopBlendPositionXZ: 0
    m_KeepOriginalOrientation: 0
    m_KeepOriginalPositionY: 1
    m_KeepOriginalPositionXZ: 0
    m_HeightFromFeet: 0
    m_Mirror: 0
  m_EditorCurves: []
  m_EulerEditorCurves: []
  m_HasGenericRootTransform: 0
  m_HasMotionFloatCurves: 0
  m_Events: []
