{
  "12/26/2019 5:36:52 PM": "PlayerDataDatabaseModel : No internet connection",
  "12/26/2019 5:36:53 PM": "PlayerScoreDataDatabaseModel : No internet connection",
  "12/26/2019 5:36:54 PM": "VoucherDistributionDatabaseModel : No internet connection",
  "12/26/2019 5:37:00 PM": "VoucherDistributionDatabaseModel :\nserver error \n Values : Jk9glmLy | GOLDTIER1RM88VIPNNETGCREDITS | Jk9glmLy | \nHTTP/1.1 500 Internal Server Error\n server url: http://191204-my-genting.uid-testing.space/public/api/submit-voucher-data",
  "12/26/2019 5:37:04 PM": "VoucherDistributionDatabaseModel :\nserver error \n Values : Df6svVk7 | CLASSICTIER2RM68NVIPNNETGCREDITS | Df6svVk7 | \nHTTP/1.1 500 Internal Server Error\n server url: http://191204-my-genting.uid-testing.space/public/api/submit-voucher-data",
  "12/26/2019 5:37:05 PM": "no internet connection",
  "12/26/2019 5:38:41 PM": "no internet connection",
  "12/26/2019 5:38:42 PM": "VoucherDistributionDatabaseModel : No internet connection",
  "12/26/2019 5:38:44 PM": "no internet connection",
  "12/26/2019 5:39:06 PM": "PlayerDataDatabaseModel : No internet connection",
  "12/26/2019 5:39:07 PM": "PlayerScoreDataDatabaseModel : No internet connection",
  "12/26/2019 5:39:08 PM": "VoucherDistributionDatabaseModel : No internet connection",
  "12/26/2019 5:39:09 PM": "no internet connection",
  "12/26/2019 5:43:22 PM": "PlayerDataDatabaseModel : No internet connection",
  "12/26/2019 5:43:23 PM": "PlayerScoreDataDatabaseModel : No internet connection",
  "12/26/2019 5:43:24 PM": "VoucherDistributionDatabaseModel : No internet connection",
  "12/26/2019 5:43:25 PM": "no internet connection",
  "12/26/2019 5:43:50 PM": "no internet connection",
  "12/26/2019 5:43:53 PM": "no internet connection",
  "12/26/2019 5:43:54 PM": "VoucherCodeDBModelEntity\nHTTP/1.1 404 Not Found\n0F4mMctk",
  "12/26/2019 5:43:55 PM": "no internet connection",
  "12/26/2019 5:43:56 PM": "VoucherCodeDBModelEntity\nHTTP/1.1 404 Not Found\n0F4mMctk",
  "12/26/2019 5:44:00 PM": "no internet connection",
  "12/26/2019 5:44:01 PM": "VoucherCodeDBModelEntity\nHTTP/1.1 404 Not Found\n0F4mMctk",
  "12/26/2019 5:44:03 PM": "no internet connection",
  "12/26/2019 5:44:04 PM": "VoucherCodeDBModelEntity\nHTTP/1.1 404 Not Found\n0F4mMctk",
  "12/26/2019 5:44:06 PM": "no internet connection",
  "12/26/2019 5:44:07 PM": "VoucherCodeDBModelEntity\nHTTP/1.1 404 Not Found\n0F4mMct",
  "12/26/2019 5:44:13 PM": "no internet connection",
  "12/26/2019 5:44:14 PM": "VoucherCodeDBModelEntity\nHTTP/1.1 404 Not Found\n0F4mMctk",
  "12/26/2019 5:44:16 PM": "no internet connection",
  "12/26/2019 5:44:17 PM": "VoucherCodeDBModelEntity\nHTTP/1.1 404 Not Found\n0F4mMctk",
  "12/26/2019 5:45:32 PM": "PlayerDataDatabaseModel : No internet connection",
  "12/26/2019 5:45:33 PM": "PlayerScoreDataDatabaseModel : No internet connection",
  "12/26/2019 5:45:34 PM": "no internet connection",
  "12/26/2019 5:45:45 PM": "no internet connection",
  "12/26/2019 5:45:48 PM": "no internet connection",
  "12/26/2019 5:45:49 PM": "no internet connection",
  "12/26/2019 5:45:56 PM": "no internet connection",
  "12/26/2019 5:45:57 PM": "no internet connection",
  "12/26/2019 5:46:02 PM": "no internet connection",
  "12/26/2019 5:46:03 PM": "no internet connection",
  "12/26/2019 5:46:07 PM": "no internet connection",
  "12/26/2019 5:46:08 PM": "no internet connection",
  "12/26/2019 5:46:12 PM": "no internet connection",
  "12/26/2019 5:50:27 PM": "no internet connection",
  "12/26/2019 5:50:28 PM": "PlayerScoreDataDatabaseModel : No internet connection",
  "12/26/2019 5:50:29 PM": "VoucherDistributionDatabaseModel : No internet connection",
  "12/26/2019 5:50:30 PM": "no internet connection",
  "12/26/2019 5:50:32 PM": "no internet connection",
  "12/26/2019 5:50:35 PM": "no internet connection",
  "12/26/2019 5:50:39 PM": "no internet connection",
  "12/26/2019 6:43:10 PM": "VoucherCodeDBModelEntity\nHTTP/1.1 500 Internal Server Error\nhttp://191204-my-genting.uid-testing.space/public/api/download-used-redeem-code-list",
  "12/26/2019 6:43:11 PM": "VoucherCodeDBModelEntity\nHTTP/1.1 500 Internal Server Error\nhttp://191204-my-genting.uid-testing.space/public/api/download-used-redeem-code-list",
  "12/26/2019 6:43:37 PM": "VoucherCodeDBModelEntity\nHTTP/1.1 500 Internal Server Error\nhttp://191204-my-genting.uid-testing.space/public/api/download-used-redeem-code-list",
  "12/26/2019 6:44:29 PM": "VoucherCodeDBModelEntity\nHTTP/1.1 500 Internal Server Error\nhttp://191204-my-genting.uid-testing.space/public/api/download-used-redeem-code-list",
  "12/26/2019 6:44:31 PM": "VoucherCodeDBModelEntity\nHTTP/1.1 500 Internal Server Error\nhttp://191204-my-genting.uid-testing.space/public/api/download-used-redeem-code-list",
  "12/26/2019 6:44:45 PM": "VoucherCodeDBModelEntity\nHTTP/1.1 500 Internal Server Error\nhttp://191204-my-genting.uid-testing.space/public/api/download-used-redeem-code-list",
  "12/26/2019 7:02:43 PM": "Could not allocate memory: System out of memory!\nTrying to allocate: 16777220B with 16 alignment. MemoryLabel: Texture\nAllocation happened at: Line:77 in C:\\buildslave\\unity\\build\\Runtime/Utilities/dynamic_array.h\nMemory overview\n\n[ ALLOC_DEFAULT ] used: 120361277B | peak: 0B | reserved: 149366357B \n[ ALLOC_TEMP_JOB_1_FRAME ] used: 0B | peak: 0B | reserved: 1048576B \n[ ALLOC_TEMP_JOB_2_FRAMES ] used: 0B | peak: 0B | reserved: 1048576B \n[ ALLOC_TEMP_JOB_4_FRAMES ] used: 0B | peak: 0B | reserved: 2097152B \n[ ALLOC_TEMP_JOB_ASYNC ] used: 0B | peak: 0B | reserved: 1048576B \n[ ALLOC_GFX ] used: 154194617B | peak: 0B | reserved: 173335033B \n[ ALLOC_CACHEOBJECTS ] used: 30859424B | peak: 0B | reserved: 60817408B \n[ ALLOC_TYPETREE ] used: 2838920B | peak: 0B | reserved: 34603008B \n[ ALLOC_PROFILER ] used: 5409472B | peak: 5413288B | reserved: 16777216B \n[ ALLOC_PROFILER_EDITOR ] used: 22288B | peak: 31520B | reserved: 67108864B \n[ ALLOC_TEMP_THREAD ] used: 32768B | peak: 0B | reserved: 55115776B \n",
  "12/27/2019 10:19:59 AM": "VoucherCodeDBModelEntity\nHTTP/1.1 500 Internal Server Error\nhttp://191204-my-genting.uid-testing.space/public/api/download-used-redeem-code-list",
  "12/27/2019 10:20:10 AM": "VoucherCodeDBModelEntity\nHTTP/1.1 500 Internal Server Error\nhttp://191204-my-genting.uid-testing.space/public/api/download-used-redeem-code-list",
  "12/27/2019 10:20:11 AM": "VoucherCodeDBModelEntity\nHTTP/1.1 500 Internal Server Error\nhttp://191204-my-genting.uid-testing.space/public/api/download-used-redeem-code-list",
  "12/27/2019 10:20:15 AM": "VoucherCodeDBModelEntity\nHTTP/1.1 500 Internal Server Error\nhttp://191204-my-genting.uid-testing.space/public/api/download-used-redeem-code-list",
  "12/27/2019 10:20:19 AM": "VoucherCodeDBModelEntity\nHTTP/1.1 500 Internal Server Error\nhttp://191204-my-genting.uid-testing.space/public/api/download-used-redeem-code-list",
  "12/27/2019 10:20:35 AM": "VoucherCodeDBModelEntity\nHTTP/1.1 500 Internal Server Error\nhttp://191204-my-genting.uid-testing.space/public/api/download-used-redeem-code-list",
  "12/27/2019 10:20:37 AM": "VoucherCodeDBModelEntity\nHTTP/1.1 500 Internal Server Error\nhttp://191204-my-genting.uid-testing.space/public/api/download-used-redeem-code-list",
  "12/27/2019 10:20:56 AM": "VoucherCodeDBModelEntity\nHTTP/1.1 500 Internal Server Error\nhttp://191204-my-genting.uid-testing.space/public/api/download-used-redeem-code-list",
  "12/27/2019 10:21:02 AM": "VoucherCodeDBModelEntity\nHTTP/1.1 500 Internal Server Error\nhttp://191204-my-genting.uid-testing.space/public/api/download-used-redeem-code-list",
  "12/27/2019 10:21:45 AM": "VoucherCodeDBModelEntity\nHTTP/1.1 500 Internal Server Error\nhttp://191204-my-genting.uid-testing.space/public/api/download-used-redeem-code-list",
  "12/27/2019 10:21:49 AM": "VoucherCodeDBModelEntity\nHTTP/1.1 500 Internal Server Error\nhttp://191204-my-genting.uid-testing.space/public/api/download-used-redeem-code-list",
  "12/27/2019 10:22:00 AM": "VoucherCodeDBModelEntity\nHTTP/1.1 500 Internal Server Error\nhttp://191204-my-genting.uid-testing.space/public/api/download-used-redeem-code-list",
  "12/27/2019 10:22:46 AM": "VoucherCodeDBModelEntity\nHTTP/1.1 500 Internal Server Error\nhttp://191204-my-genting.uid-testing.space/public/api/download-used-redeem-code-list",
  "12/27/2019 10:22:48 AM": "VoucherCodeDBModelEntity\nHTTP/1.1 500 Internal Server Error\nhttp://191204-my-genting.uid-testing.space/public/api/download-used-redeem-code-list",
  "12/27/2019 11:55:44 AM": "PlayerDataDatabaseModel :\nserver error \n Values : mgNL99xQ | mgNL99xQ | mgNL99xQ | 0 | 0000-00-00 | male | XX1111 | 2019-12-27 11:55:00 | \nHTTP/1.1 500 Internal Server Error\n server url: http://191204-my-genting.uid-testing.space/public/api/submit-player-data",
  "12/27/2019 11:56:09 AM": "PlayerDataDatabaseModel :\nserver error \n Values : mgNL99xQ | mgNL99xQ | mgNL99xQ | 0 | 0000-00-00 | male | XX1111 | 2019-12-27 11:55:00 | \nHTTP/1.1 500 Internal Server Error\n server url: http://191204-my-genting.uid-testing.space/public/api/submit-player-data",
  "1/6/2020 5:22:17 PM": "PlayerDataDatabaseModel :\nserver error \n Values : WrgCUHT9 | WrgCUHT9 | WrgCUHT9 | 0 | 0000-00-00 | male | XX1111 | 2020-01-06 10:57:02 | \nHTTP/1.1 500 Internal Server Error\n server url: http://191204-my-genting.uid-testing.space/public/api/submit-player-data",
  "1/6/2020 5:22:18 PM": "PlayerDataDatabaseModel :\nserver error \n Values : WrgCUHT9 | WrgCUHT9 | WrgCUHT9 | 0 | 0000-00-00 | male | XX1111 | 2020-01-06 10:57:02 | \nHTTP/1.1 500 Internal Server Error\n server url: http://191204-my-genting.uid-testing.space/public/api/submit-player-data",
  "1/6/2020 5:22:24 PM": "PlayerDataDatabaseModel :\nserver error \n Values : WrgCUHT9 | WrgCUHT9 | WrgCUHT9 | 0 | 0000-00-00 | male | XX1111 | 2020-01-06 10:57:02 | \nHTTP/1.1 500 Internal Server Error\n server url: http://191204-my-genting.uid-testing.space/public/api/submit-player-data",
  "1/6/2020 5:22:29 PM": "PlayerDataDatabaseModel :\nserver error \n Values : WrgCUHT9 | WrgCUHT9 | WrgCUHT9 | 0 | 0000-00-00 | male | XX1111 | 2020-01-06 10:57:02 | \nHTTP/1.1 500 Internal Server Error\n server url: http://191204-my-genting.uid-testing.space/public/api/submit-player-data",
  "1/6/2020 5:22:30 PM": "PlayerDataDatabaseModel :\nserver error \n Values : WrgCUHT9 | WrgCUHT9 | WrgCUHT9 | 0 | 0000-00-00 | male | XX1111 | 2020-01-06 10:57:02 | \nHTTP/1.1 500 Internal Server Error\n server url: http://191204-my-genting.uid-testing.space/public/api/submit-player-data",
  "1/6/2020 5:22:35 PM": "PlayerDataDatabaseModel :\nserver error \n Values : WrgCUHT9 | WrgCUHT9 | WrgCUHT9 | 0 | 0000-00-00 | male | XX1111 | 2020-01-06 10:57:02 | \nHTTP/1.1 500 Internal Server Error\n server url: http://191204-my-genting.uid-testing.space/public/api/submit-player-data",
  "1/6/2020 5:22:41 PM": "PlayerDataDatabaseModel :\nserver error \n Values : WrgCUHT9 | WrgCUHT9 | WrgCUHT9 | 0 | 0000-00-00 | male | XX1111 | 2020-01-06 10:57:02 | \nHTTP/1.1 500 Internal Server Error\n server url: http://191204-my-genting.uid-testing.space/public/api/submit-player-data",
  "1/6/2020 5:22:47 PM": "PlayerDataDatabaseModel :\nserver error \n Values : WrgCUHT9 | WrgCUHT9 | WrgCUHT9 | 0 | 0000-00-00 | male | XX1111 | 2020-01-06 10:57:02 | \nHTTP/1.1 500 Internal Server Error\n server url: http://191204-my-genting.uid-testing.space/public/api/submit-player-data",
  "1/6/2020 5:22:53 PM": "PlayerDataDatabaseModel :\nserver error \n Values : WrgCUHT9 | WrgCUHT9 | WrgCUHT9 | 0 | 0000-00-00 | male | XX1111 | 2020-01-06 10:57:02 | \nHTTP/1.1 500 Internal Server Error\n server url: http://191204-my-genting.uid-testing.space/public/api/submit-player-data",
  "1/6/2020 5:22:58 PM": "VoucherDistributionDatabaseModel :\nserver error \n Values : WrgCUHT9 | 23 | WrgCUHT9 | \nHTTP/1.1 500 Internal Server Error\n server url: http://191204-my-genting.uid-testing.space/public/api/submit-voucher-data",
  "1/6/2020 5:22:59 PM": "VoucherDistributionDatabaseModel :\nserver error \n Values : WrgCUHT9 | 23 | WrgCUHT9 | \nHTTP/1.1 500 Internal Server Error\n server url: http://191204-my-genting.uid-testing.space/public/api/submit-voucher-data",
  "1/6/2020 5:23:04 PM": "VoucherDistributionDatabaseModel :\nserver error \n Values : WrgCUHT9 | 14 | WrgCUHT9 | \nHTTP/1.1 500 Internal Server Error\n server url: http://191204-my-genting.uid-testing.space/public/api/submit-voucher-data",
  "1/6/2020 5:23:05 PM": "VoucherDistributionDatabaseModel :\nserver error \n Values : WrgCUHT9 | 14 | WrgCUHT9 | \nHTTP/1.1 500 Internal Server Error\n server url: http://191204-my-genting.uid-testing.space/public/api/submit-voucher-data",
  "1/6/2020 5:23:10 PM": "VoucherDistributionDatabaseModel :\nserver error \n Values : WrgCUHT9 | 30 | WrgCUHT9 | \nHTTP/1.1 500 Internal Server Error\n server url: http://191204-my-genting.uid-testing.space/public/api/submit-voucher-data",
  "1/6/2020 5:23:15 PM": "VoucherDistributionDatabaseModel :\nserver error \n Values : WrgCUHT9 | Concave Earphone | WrgCUHT9 | \nHTTP/1.1 500 Internal Server Error\n server url: http://191204-my-genting.uid-testing.space/public/api/submit-voucher-data",
  "1/6/2020 5:23:16 PM": "VoucherDistributionDatabaseModel :\nserver error \n Values : WrgCUHT9 | Concave Earphone | WrgCUHT9 | \nHTTP/1.1 500 Internal Server Error\n server url: http://191204-my-genting.uid-testing.space/public/api/submit-voucher-data",
  "1/6/2020 5:23:21 PM": "VoucherDistributionDatabaseModel :\nserver error \n Values : WrgCUHT9 | 28 | WrgCUHT9 | \nHTTP/1.1 500 Internal Server Error\n server url: http://191204-my-genting.uid-testing.space/public/api/submit-voucher-data",
  "1/6/2020 5:23:27 PM": "VoucherDistributionDatabaseModel :\nserver error \n Values : WrgCUHT9 | Remax Data Cable | WrgCUHT9 | \nHTTP/1.1 500 Internal Server Error\n server url: http://191204-my-genting.uid-testing.space/public/api/submit-voucher-data",
  "1/6/2020 5:23:32 PM": "VoucherDistributionDatabaseModel :\nserver error \n Values : WrgCUHT9 | 10 | WrgCUHT9 | \nHTTP/1.1 500 Internal Server Error\n server url: http://191204-my-genting.uid-testing.space/public/api/submit-voucher-data",
  "1/6/2020 5:23:33 PM": "VoucherDistributionDatabaseModel :\nserver error \n Values : WrgCUHT9 | 10 | WrgCUHT9 | \nHTTP/1.1 500 Internal Server Error\n server url: http://191204-my-genting.uid-testing.space/public/api/submit-voucher-data",
  "1/6/2020 5:23:38 PM": "VoucherDistributionDatabaseModel :\nserver error \n Values : WrgCUHT9 | Portable Mini Fan | WrgCUHT9 | \nHTTP/1.1 500 Internal Server Error\n server url: http://191204-my-genting.uid-testing.space/public/api/submit-voucher-data",
  "1/6/2020 5:23:44 PM": "VoucherDistributionDatabaseModel :\nserver error \n Values : WrgCUHT9 | Concave Earphone | WrgCUHT9 | \nHTTP/1.1 500 Internal Server Error\n server url: http://191204-my-genting.uid-testing.space/public/api/submit-voucher-data",
  "1/6/2020 5:23:49 PM": "VoucherDistributionDatabaseModel :\nserver error \n Values : WrgCUHT9 | 23 | WrgCUHT9 | \nHTTP/1.1 500 Internal Server Error\n server url: http://191204-my-genting.uid-testing.space/public/api/submit-voucher-data",
  "1/6/2020 5:23:50 PM": "VoucherDistributionDatabaseModel :\nserver error \n Values : WrgCUHT9 | 23 | WrgCUHT9 | \nHTTP/1.1 500 Internal Server Error\n server url: http://191204-my-genting.uid-testing.space/public/api/submit-voucher-data",
  "1/6/2020 5:23:54 PM": "There is no row at position 0.",
  "1/6/2020 5:23:55 PM": "VoucherDistributionDatabaseModel :\nserver error \n Values : WrgCUHT9 | Remax Data Cable | WrgCUHT9 | \nHTTP/1.1 500 Internal Server Error\n server url: http://191204-my-genting.uid-testing.space/public/api/submit-voucher-data",
  "1/6/2020 5:23:56 PM": "VoucherDistributionDatabaseModel :\nserver error \n Values : WrgCUHT9 | Remax Data Cable | WrgCUHT9 | \nHTTP/1.1 500 Internal Server Error\n server url: http://191204-my-genting.uid-testing.space/public/api/submit-voucher-data",
  "1/6/2020 5:24:01 PM": "VoucherDistributionDatabaseModel :\nserver error \n Values : WrgCUHT9 | 20 | WrgCUHT9 | \nHTTP/1.1 500 Internal Server Error\n server url: http://191204-my-genting.uid-testing.space/public/api/submit-voucher-data",
  "1/6/2020 5:24:42 PM": "PlayerDataDatabaseModel :\nserver error \n Values : WrgCUHT9 | WrgCUHT9 | WrgCUHT9 | 0 | 0000-00-00 | male | XX1111 | 2020-01-06 10:57:02 | \nHTTP/1.1 500 Internal Server Error\n server url: http://191204-my-genting.uid-testing.space/public/api/submit-player-data",
  "1/6/2020 5:25:01 PM": "PlayerDataDatabaseModel :\nserver error \n Values : WrgCUHT9 | WrgCUHT9 | WrgCUHT9 | 0 | 0000-00-00 | male | XX1111 | 2020-01-06 10:57:02 | \nHTTP/1.1 500 Internal Server Error\n server url: http://191204-my-genting.uid-testing.space/public/api/submit-player-data",
  "1/6/2020 5:25:02 PM": "PlayerDataDatabaseModel :\nserver error \n Values : WrgCUHT9 | WrgCUHT9 | WrgCUHT9 | 0 | 0000-00-00 | male | XX1111 | 2020-01-06 10:57:02 | \nHTTP/1.1 500 Internal Server Error\n server url: http://191204-my-genting.uid-testing.space/public/api/submit-player-data",
  "1/6/2020 5:25:07 PM": "PlayerDataDatabaseModel :\nserver error \n Values : WrgCUHT9 | WrgCUHT9 | WrgCUHT9 | 0 | 0000-00-00 | male | XX1111 | 2020-01-06 10:57:02 | \nHTTP/1.1 500 Internal Server Error\n server url: http://191204-my-genting.uid-testing.space/public/api/submit-player-data",
  "1/6/2020 5:25:10 PM": "There is no row at position 0.",
  "1/6/2020 5:25:13 PM": "PlayerDataDatabaseModel :\nserver error \n Values : WrgCUHT9 | WrgCUHT9 | WrgCUHT9 | 0 | 0000-00-00 | male | XX1111 | 2020-01-06 10:57:02 | \nHTTP/1.1 500 Internal Server Error\n server url: http://191204-my-genting.uid-testing.space/public/api/submit-player-data",
  "1/6/2020 5:25:14 PM": "There is no row at position 0.",
  "1/6/2020 5:25:17 PM": "There is no row at position 0.",
  "1/6/2020 5:25:18 PM": "PlayerDataDatabaseModel :\nserver error \n Values : WrgCUHT9 | WrgCUHT9 | WrgCUHT9 | 0 | 0000-00-00 | male | XX1111 | 2020-01-06 10:57:02 | \nHTTP/1.1 500 Internal Server Error\n server url: http://191204-my-genting.uid-testing.space/public/api/submit-player-data",
  "1/6/2020 5:25:19 PM": "PlayerDataDatabaseModel :\nserver error \n Values : WrgCUHT9 | WrgCUHT9 | WrgCUHT9 | 0 | 0000-00-00 | male | XX1111 | 2020-01-06 10:57:02 | \nHTTP/1.1 500 Internal Server Error\n server url: http://191204-my-genting.uid-testing.space/public/api/submit-player-data",
  "1/6/2020 5:25:47 PM": "PlayerDataDatabaseModel :\nserver error \n Values : WrgCUHT9 | WrgCUHT9 | WrgCUHT9 | 0 | 0000-00-00 | male | XX1111 | 2020-01-06 10:57:02 | \nHTTP/1.1 500 Internal Server Error\n server url: http://191204-my-genting.uid-testing.space/public/api/submit-player-data",
  "1/6/2020 5:25:53 PM": "PlayerDataDatabaseModel :\nserver error \n Values : WrgCUHT9 | WrgCUHT9 | WrgCUHT9 | 0 | 0000-00-00 | male | XX1111 | 2020-01-06 10:57:02 | \nHTTP/1.1 500 Internal Server Error\n server url: http://191204-my-genting.uid-testing.space/public/api/submit-player-data",
  "1/6/2020 5:25:58 PM": "PlayerDataDatabaseModel :\nserver error \n Values : WrgCUHT9 | WrgCUHT9 | WrgCUHT9 | 0 | 0000-00-00 | male | XX1111 | 2020-01-06 10:57:02 | \nHTTP/1.1 500 Internal Server Error\n server url: http://191204-my-genting.uid-testing.space/public/api/submit-player-data",
  "1/6/2020 5:25:59 PM": "PlayerDataDatabaseModel :\nserver error \n Values : WrgCUHT9 | WrgCUHT9 | WrgCUHT9 | 0 | 0000-00-00 | male | XX1111 | 2020-01-06 10:57:02 | \nHTTP/1.1 500 Internal Server Error\n server url: http://191204-my-genting.uid-testing.space/public/api/submit-player-data",
  "1/6/2020 5:34:18 PM": "PlayerDataDatabaseModel :\nserver error \n Values : WrgCUHT9 | WrgCUHT9 | WrgCUHT9 | 0 | 0000-00-00 | male | XX1111 | 2020-01-06 10:57:02 | \nHTTP/1.1 500 Internal Server Error\n server url: http://191204-my-genting.uid-testing.space/public/api/submit-player-data",
  "1/6/2020 5:34:19 PM": "PlayerDataDatabaseModel :\nserver error \n Values : WrgCUHT9 | WrgCUHT9 | WrgCUHT9 | 0 | 0000-00-00 | male | XX1111 | 2020-01-06 10:57:02 | \nHTTP/1.1 500 Internal Server Error\n server url: http://191204-my-genting.uid-testing.space/public/api/submit-player-data",
  "1/6/2020 5:34:24 PM": "PlayerDataDatabaseModel :\nserver error \n Values : WrgCUHT9 | WrgCUHT9 | WrgCUHT9 | 0 | 0000-00-00 | male | XX1111 | 2020-01-06 10:57:02 | \nHTTP/1.1 500 Internal Server Error\n server url: http://191204-my-genting.uid-testing.space/public/api/submit-player-data",
  "1/6/2020 5:35:02 PM": "PlayerDataDatabaseModel :\nserver error \n Values : WrgCUHT9 | WrgCUHT9 | WrgCUHT9 | 0 | 0000-00-00 | male | XX1111 | 2020-01-06 10:57:02 | \nHTTP/1.1 500 Internal Server Error\n server url: http://191204-my-genting.uid-testing.space/public/api/submit-player-data",
  "1/6/2020 5:35:03 PM": "PlayerDataDatabaseModel :\nserver error \n Values : WrgCUHT9 | WrgCUHT9 | WrgCUHT9 | 0 | 0000-00-00 | male | XX1111 | 2020-01-06 10:57:02 | \nHTTP/1.1 500 Internal Server Error\n server url: http://191204-my-genting.uid-testing.space/public/api/submit-player-data",
  "1/6/2020 5:35:22 PM": "PlayerDataDatabaseModel :\nserver error \n Values : WrgCUHT9 | WrgCUHT9 | WrgCUHT9 | 0 | 0000-00-00 | male | XX1111 | 2020-01-06 10:57:02 | \nHTTP/1.1 500 Internal Server Error\n server url: http://191204-my-genting.uid-testing.space/public/api/submit-player-data",
  "1/6/2020 5:35:27 PM": "PlayerDataDatabaseModel :\nserver error \n Values : WrgCUHT9 | WrgCUHT9 | WrgCUHT9 | 0 | 0000-00-00 | male | XX1111 | 2020-01-06 10:57:02 | \nHTTP/1.1 500 Internal Server Error\n server url: http://191204-my-genting.uid-testing.space/public/api/submit-player-data",
  "1/6/2020 5:35:28 PM": "PlayerDataDatabaseModel :\nserver error \n Values : WrgCUHT9 | WrgCUHT9 | WrgCUHT9 | 0 | 0000-00-00 | male | XX1111 | 2020-01-06 10:57:02 | \nHTTP/1.1 500 Internal Server Error\n server url: http://191204-my-genting.uid-testing.space/public/api/submit-player-data",
  "1/6/2020 5:35:32 PM": "PlayerDataDatabaseModel :\nserver error \n Values : WrgCUHT9 | WrgCUHT9 | WrgCUHT9 | 0 | 0000-00-00 | male | XX1111 | 2020-01-06 10:57:02 | \nHTTP/1.1 500 Internal Server Error\n server url: http://191204-my-genting.uid-testing.space/public/api/submit-player-data",
  "1/6/2020 5:35:33 PM": "PlayerDataDatabaseModel :\nserver error \n Values : WrgCUHT9 | WrgCUHT9 | WrgCUHT9 | 0 | 0000-00-00 | male | XX1111 | 2020-01-06 10:57:02 | \nHTTP/1.1 500 Internal Server Error\n server url: http://191204-my-genting.uid-testing.space/public/api/submit-player-data"
}