{
  "fileName": "PlayerScoreDataDatabaseModel",
  "folderPath": "C:\\UID-APP\\191204-MY-Genting",
  "dbName": "PlayerScoreDataDatabaseModel",
  "tableName": "PlayerScoreDataDatabaseModel",
  "columns": [
    {
      "name": "id",
      "attribute": "INTEGER PRIMARY KEY",
      "sync": false,
      "dummyPrefix": "id"
    },
    {
      "name": "email",
      "attribute": "TEXT",
      "sync": true,
      "dummyPrefix": ""
    },
    {
      "name": "result",
      "attribute": "TEXT",
      "sync": true,
      "dummyPrefix": "lose"
    },
    {
      "name": "score",
      "attribute": "TEXT",
      "sync": true,
      "dummyPrefix": "0"
    },
    {
      "name": "is_sync",
      "attribute": "TEXT",
      "sync": false,
      "dummyPrefix": "new"
    }
  ],
  "sendURL": "http://191204-my-genting.uid-testing.space/",
  "sendAPI": "submit-score-data",
  "serverResponsesArray": [
    {
      "resultResponse": "Success",
      "resultResponseMessage": "sync success"
    },
    {
      "resultResponse": "Fail",
      "resultResponseMessage": "sync fail"
    }
  ],
  "hasMultipleLocalDB": false,
  "keyDownloadAPI": "",
  "keyFileName": "PlayerScoreDataDatabaseModel Online",
  "serverEmailFilePath": ""
}