{
  "fileName": "VendingDailyStockDatabaseModel",
  "folderPath": "C:\\UID-APP\\191209-MY-GentingVM",
  "dbName": "VendingDailyStockDatabaseModel",
  "tableName": "VendingDailyStockDatabaseModel",
  "columns": [
    {
      "name": "id",
      "attribute": "INTEGER PRIMARY KEY",
      "sync": false,
      "dummyPrefix": ""
    },
    {
      "name": "voucher_code",
      "attribute": "TEXT",
      "sync": false,
      "dummyPrefix": ""
    },
    {
      "name": "stock_id",
      "attribute": "TEXT",
      "sync": false,
      "dummyPrefix": ""
    },
    {
      "name": "voucher_stock_index",
      "attribute": "TEXT",
      "sync": false,
      "dummyPrefix": ""
    }
  ],
  "sendURL": "",
  "sendAPI": "",
  "serverResponsesArray": [],
  "hasMultipleLocalDB": false,
  "keyDownloadAPI": "",
  "keyFileName": "VendingDailyStockDatabaseModel Online",
  "serverEmailFilePath": ""
}